{
  "w": {
    "onPress": "MovePlayerUp",
    "onPressArgType": "object",
    "onPressArgs": {
      "object": "Player1"
    },
    "onRelease": "null",
    "onReleaseArgType": "none"
  },
  "s": {
    "onPress": "MovePlayerDown",
    "onPressArgType": "object",
    "onPressArgs": {
      "object": "Player1"
    },
    "onRelease": "null",
    "onReleaseArgType": "none"
  },
  "d": {
    "onPress": "MovePlayerRight",
    "onPressArgType": "object",
    "onPressArgs": {
      "object": "Player1"
    },
    "onRelease": "null",
    "onReleaseArgType": "none"
  },
  "a": {
    "onPress": "MovePlayerLeft",
    "onPressArgType": "object",
    "onPressArgs": {
      "object": "Player1"
    },
    "onRelease": "null",
    "onReleaseArgType": "none"
  },
  "i": {
    "onPress": "MovePlayerUp",
    "onPressArgType": "object",
    "onPressArgs": {
      "object": "Player2"
    },
    "onRelease": "null",
    "onReleaseArgType": "none"
  },
  "k": {
    "onPress": "MovePlayerDown",
    "onPressArgType": "object",
    "onPressArgs": {
      "object": "Player2"
    },
    "onRelease": "null",
    "onReleaseArgType": "none"
  },
  "l": {
    "onPress": "MovePlayerRight",
    "onPressArgType": "object",
    "onPressArgs": {
      "object": "Player2"
    },
    "onRelease": "null",
    "onReleaseArgType": "none"
  },
  "j": {
    "onPress": "MovePlayerLeft",
    "onPressArgType": "object",
    "onPressArgs": {
      "object": "Player2"
    },
    "onRelease": "null",
    "onReleaseArgType": "none"
  },
  "LAlt": {
    "onPress": "HardReset",
    "onPressArgType": "none",
    "onRelease": "null",
    "onReleaseArgType": "none"
  },
  "q": {
    "onPress": "RotatePlayerLeft",
    "onPressArgType": "object",
    "onPressArgs": {
      "object": "Player1"
    },
    "onRelease": "null",
    "onReleaseArgType": "none"
  },

  "e": {
    "onPress": "RotatePlayerRight",
    "onPressArgType": "object",
    "onPressArgs": {
      "object": "Player1"
    },
    "onRelease": "null",
    "onReleaseArgType": "none"
  }
}